<?xml version="1.0" standalone="no"?>
<!DOCTYPE svg PUBLIC "-//W3C//DTD SVG 1.1//EN" "http://www.w3.org/Graphics/SVG/1.1/DTD/svg11.dtd">

<svg style="stroke-linejoin:round; stroke:black; stroke-width:0.5pt; text-anchor:middle; fill:none" xmlns="http://www.w3.org/2000/svg" font-family="Helvetica, Arial, FreeSans, Sans, sans, sans-serif" height="600px" width="600px" version="1.1" xmlns:xlink="http://www.w3.org/1999/xlink" viewBox="0 0 100 100">

<g>

<g>

<path stroke="black" stroke-width=".5pt" d="M50 50L75 50" />

<path stroke="black" stroke-width=".5pt" d="M50 50L50 25" />

<path stroke="black" stroke-width=".5pt" d="M50 50L50 50" />

<path stroke="red" stroke-width="0.3pt" d="M50 50L68.35 50" />

<path stroke="red" stroke-width="0.3pt" d="M68.35 50L84.5179 41.5347" />

<path stroke="red" stroke-width="0.3pt" d="M84.5179 41.5347L94.9397 26.4922" />

<path stroke="red" stroke-width="0.3pt" d="M94.9397 26.4922L97.1858 8.33061" />

<path stroke="red" stroke-width="0.3pt" d="M97.1858 8.33061L90.7358 -8.79502" />

<path stroke="red" stroke-width="0.3pt" d="M90.7358 -8.79502L77.0642 -20.9596" />

<path stroke="red" stroke-width="0.3pt" d="M77.0642 -20.9596L59.3045 -25.3737" />

<path stroke="red" stroke-width="0.3pt" d="M59.3045 -25.3737L41.5284 -21.0263" />

<path stroke="red" stroke-width="0.3pt" d="M41.5284 -21.0263L27.8078 -8.91704" />

<path stroke="red" stroke-width="0.3pt" d="M27.8078 -8.91704L21.2781 8.17839" />

<path stroke="red" stroke-width="0.3pt" d="M21.2781 8.17839L23.4215 26.3021" />

<path stroke="red" stroke-width="0.3pt" d="M23.4215 26.3021L33.7834 41.4465" />

<path stroke="red" stroke-width="0.3pt" d="M33.7834 41.4465L50.0587 50.0299" />

</g>

</g>

</svg>

