
from blochlib.quantop import operator
from blochlib.blochlib import *

DENSITY_MATRIX = operator("1,0;0,0")
OUTPUT_NAME = "optimal_27_algebra.svg"
PULSE_SEQUENCE = [rotation((1.000000, 0.000000, 0.000000), 0.177),rotation((0.973018, 0.230730, 0.000000), 0.174),rotation((0.893491, 0.449081, 0.000000), 0.174),rotation((0.766001, 0.642839, 0.000000), 0.174),rotation((0.597424, 0.801925, 0.000000), 0.175),rotation((0.396653, 0.917969, 0.000000), 0.175),rotation((0.174382, 0.984678, 0.000000), 0.175),rotation((-0.057409, 0.998351, 0.000000), 0.175),rotation((-0.286166, 0.958180, 0.000000), 0.175),rotation((-0.499505, 0.866311, 0.000000), 0.175),rotation((-0.685902, 0.727694, 0.000000), 0.175),rotation((-0.835296, 0.549801, 0.000000), 0.175),rotation((-0.939619, 0.342223, 0.000000), 0.175),rotation((-0.993230, 0.116161, 0.000000), 0.175),rotation((-0.993228, -0.116178, 0.000000), 0.175),rotation((-0.939613, -0.342239, 0.000000), 0.175),rotation((-0.835284, -0.549819, 0.000000), 0.175),rotation((-0.685881, -0.727713, 0.000000), 0.175),rotation((-0.499497, -0.866316, 0.000000), 0.175),rotation((-0.286236, -0.958159, 0.000000), 0.175),rotation((-0.057677, -0.998335, 0.000000), 0.175),rotation((0.173819, -0.984778, 0.000000), 0.175),rotation((0.395873, -0.918305, 0.000000), 0.174),rotation((0.596764, -0.802417, 0.000000), 0.174),rotation((0.765815, -0.643062, 0.000000), 0.174),rotation((0.893489, -0.449085, 0.000000), 0.178),rotation((0.973206, -0.229935, 0.000000), 0.173),]
VIEW = (0,0,1)