<?xml version="1.0" standalone="no"?>
<!DOCTYPE svg PUBLIC "-//W3C//DTD SVG 1.1//EN" "http://www.w3.org/Graphics/SVG/1.1/DTD/svg11.dtd">

<svg style="stroke-linejoin:round; stroke:black; stroke-width:0.5pt; text-anchor:middle; fill:none" xmlns="http://www.w3.org/2000/svg" font-family="Helvetica, Arial, FreeSans, Sans, sans, sans-serif" height="600px" width="600px" version="1.1" xmlns:xlink="http://www.w3.org/1999/xlink" viewBox="0 0 100 100">

<g>

<g>

<path stroke="black" stroke-width=".5pt" d="M50 50L75 50" />

<path stroke="black" stroke-width=".5pt" d="M50 50L50 25" />

<path stroke="black" stroke-width=".5pt" d="M50 50L50 50" />

<path stroke="red" stroke-width="0.3pt" d="M50 50L59.85 50" />

<path stroke="red" stroke-width="0.3pt" d="M59.85 50L69.3183 47.472" />

<path stroke="red" stroke-width="0.3pt" d="M69.3183 47.472L77.8107 42.5812" />

<path stroke="red" stroke-width="0.3pt" d="M77.8107 42.5812L84.7849 35.6255" />

<path stroke="red" stroke-width="0.3pt" d="M84.7849 35.6255L89.7234 27.1029" />

<path stroke="red" stroke-width="0.3pt" d="M89.7234 27.1029L92.2894 17.593" />

<path stroke="red" stroke-width="0.3pt" d="M92.2894 17.593L92.3069 7.74303" />

<path stroke="red" stroke-width="0.3pt" d="M92.3069 7.74303L89.7741 -1.77577" />

<path stroke="red" stroke-width="0.3pt" d="M89.7741 -1.77577L84.8634 -10.3143" />

<path stroke="red" stroke-width="0.3pt" d="M84.8634 -10.3143L77.9093 -17.2903" />

<path stroke="red" stroke-width="0.3pt" d="M77.9093 -17.2903L69.3863 -22.2279" />

<path stroke="red" stroke-width="0.3pt" d="M69.3863 -22.2279L59.8755 -24.7905" />

<path stroke="red" stroke-width="0.3pt" d="M59.8755 -24.7905L50.0255 -24.8032" />

<path stroke="red" stroke-width="0.3pt" d="M50.0255 -24.8032L40.5081 -22.2653" />

<path stroke="red" stroke-width="0.3pt" d="M40.5081 -22.2653L31.9723 -17.3498" />

<path stroke="red" stroke-width="0.3pt" d="M31.9723 -17.3498L25.0001 -10.3919" />

<path stroke="red" stroke-width="0.3pt" d="M25.0001 -10.3919L20.0669 -1.8663" />

<path stroke="red" stroke-width="0.3pt" d="M20.0669 -1.8663L17.5081 7.64553" />

<path stroke="red" stroke-width="0.3pt" d="M17.5081 7.64553L17.4968 17.4955" />

<path stroke="red" stroke-width="0.3pt" d="M17.4968 17.4955L20.0325 27.0135" />

<path stroke="red" stroke-width="0.3pt" d="M20.0325 27.0135L24.9427 35.5524" />

<path stroke="red" stroke-width="0.3pt" d="M24.9427 35.5524L31.8941 42.5309" />

<path stroke="red" stroke-width="0.3pt" d="M31.8941 42.5309L40.4538 47.5051" />

<path stroke="red" stroke-width="0.3pt" d="M40.4538 47.5051L49.9653 50.0651" />

</g>

</g>

</svg>

