<?xml version="1.0" standalone="no"?>
<!DOCTYPE svg PUBLIC "-//W3C//DTD SVG 1.1//EN" "http://www.w3.org/Graphics/SVG/1.1/DTD/svg11.dtd">

<svg style="stroke-linejoin:round; stroke:black; stroke-width:0.5pt; text-anchor:middle; fill:none" xmlns="http://www.w3.org/2000/svg" font-family="Helvetica, Arial, FreeSans, Sans, sans, sans-serif" height="600px" width="600px" version="1.1" xmlns:xlink="http://www.w3.org/1999/xlink" viewBox="0 0 100 100">

<g>

<g>

<path stroke="black" stroke-width=".5pt" d="M50 50L75 50" />

<path stroke="black" stroke-width=".5pt" d="M50 50L50 25" />

<path stroke="black" stroke-width=".5pt" d="M50 50L50 50" />

<path stroke="red" stroke-width="0.3pt" d="M50 50L80.3 50" />

<path stroke="red" stroke-width="0.3pt" d="M80.3 50L101.693 28.613" />

<path stroke="red" stroke-width="0.3pt" d="M101.693 28.613L101.713 -1.63704" />

<path stroke="red" stroke-width="0.3pt" d="M101.713 -1.63704L80.3424 -23.0466" />

<path stroke="red" stroke-width="0.3pt" d="M80.3424 -23.0466L50.0924 -23.082" />

<path stroke="red" stroke-width="0.3pt" d="M50.0924 -23.082L28.6664 -1.72808" />

<path stroke="red" stroke-width="0.3pt" d="M28.6664 -1.72808L28.6112 28.5719" />

<path stroke="red" stroke-width="0.3pt" d="M28.6112 28.5719L50.0164 50.0173" />

</g>

</g>

</svg>

