<?xml version="1.0" standalone="no"?>
<!DOCTYPE svg PUBLIC "-//W3C//DTD SVG 1.1//EN" "http://www.w3.org/Graphics/SVG/1.1/DTD/svg11.dtd">

<svg style="stroke-linejoin:round; stroke:black; stroke-width:0.5pt; text-anchor:middle; fill:none" xmlns="http://www.w3.org/2000/svg" font-family="Helvetica, Arial, FreeSans, Sans, sans, sans-serif" height="600px" width="600px" version="1.1" xmlns:xlink="http://www.w3.org/1999/xlink" viewBox="0 0 100 100">

<g>

<g>

<path stroke="black" stroke-width=".5pt" d="M50 50L75 50" />

<path stroke="black" stroke-width=".5pt" d="M50 50L50 25" />

<path stroke="black" stroke-width=".5pt" d="M50 50L50 50" />

<path stroke="red" stroke-width="0.3pt" d="M50 50L63.95 50" />

<path stroke="red" stroke-width="0.3pt" d="M63.95 50L76.9213 45.0045" />

<path stroke="red" stroke-width="0.3pt" d="M76.9213 45.0045L87.2155 35.6642" />

<path stroke="red" stroke-width="0.3pt" d="M87.2155 35.6642L93.4663 23.1931" />

<path stroke="red" stroke-width="0.3pt" d="M93.4663 23.1931L94.7932 9.30633" />

<path stroke="red" stroke-width="0.3pt" d="M94.7932 9.30633L91.015 -4.12228" />

<path stroke="red" stroke-width="0.3pt" d="M91.015 -4.12228L82.6402 -15.2787" />

<path stroke="red" stroke-width="0.3pt" d="M82.6402 -15.2787L70.7997 -22.6547" />

<path stroke="red" stroke-width="0.3pt" d="M70.7997 -22.6547L57.0939 -25.2535" />

<path stroke="red" stroke-width="0.3pt" d="M57.0939 -25.2535L43.3752 -22.7238" />

<path stroke="red" stroke-width="0.3pt" d="M43.3752 -22.7238L31.4972 -15.4083" />

<path stroke="red" stroke-width="0.3pt" d="M31.4972 -15.4083L23.0631 -4.29667" />

<path stroke="red" stroke-width="0.3pt" d="M23.0631 -4.29667L19.2094 9.11045" />

<path stroke="red" stroke-width="0.3pt" d="M19.2094 9.11045L20.4506 22.9549" />

<path stroke="red" stroke-width="0.3pt" d="M20.4506 22.9549L26.6049 35.4183" />

<path stroke="red" stroke-width="0.3pt" d="M26.6049 35.4183L36.864 44.871" />

<path stroke="red" stroke-width="0.3pt" d="M36.864 44.871L49.953 49.9778" />

</g>

</g>

</svg>

