<?xml version="1.0" standalone="no"?>
<!DOCTYPE svg PUBLIC "-//W3C//DTD SVG 1.1//EN" "http://www.w3.org/Graphics/SVG/1.1/DTD/svg11.dtd">

<svg style="stroke-linejoin:round; stroke:black; stroke-width:0.5pt; text-anchor:middle; fill:none" xmlns="http://www.w3.org/2000/svg" font-family="Helvetica, Arial, FreeSans, Sans, sans, sans-serif" height="600px" width="600px" version="1.1" xmlns:xlink="http://www.w3.org/1999/xlink" viewBox="0 0 100 100">

<g>

<g>

<path stroke="black" stroke-width=".5pt" d="M50 50L75 50" />

<path stroke="black" stroke-width=".5pt" d="M50 50L50 25" />

<path stroke="black" stroke-width=".5pt" d="M50 50L50 50" />

<path stroke="red" stroke-width="0.3pt" d="M50 50L57.05 50" />

<path stroke="red" stroke-width="0.3pt" d="M57.05 50L63.8293 48.715" />

<path stroke="red" stroke-width="0.3pt" d="M63.8293 48.715L70.2611 46.2166" />

<path stroke="red" stroke-width="0.3pt" d="M70.2611 46.2166L76.1299 42.588" />

<path stroke="red" stroke-width="0.3pt" d="M76.1299 42.588L81.2362 37.9474" />

<path stroke="red" stroke-width="0.3pt" d="M81.2362 37.9474L85.4061 32.4499" />

<path stroke="red" stroke-width="0.3pt" d="M85.4061 32.4499L88.4981 26.2815" />

<path stroke="red" stroke-width="0.3pt" d="M88.4981 26.2815L90.4211 19.6028" />

<path stroke="red" stroke-width="0.3pt" d="M90.4211 19.6028L91.0868 12.6848" />

<path stroke="red" stroke-width="0.3pt" d="M91.0868 12.6848L90.4718 5.76203" />

<path stroke="red" stroke-width="0.3pt" d="M90.4718 5.76203L88.5961 -0.93008" />

<path stroke="red" stroke-width="0.3pt" d="M88.5961 -0.93008L85.5228 -7.16362" />

<path stroke="red" stroke-width="0.3pt" d="M85.5228 -7.16362L81.3558 -12.7259" />

<path stroke="red" stroke-width="0.3pt" d="M81.3558 -12.7259L76.237 -17.427" />

<path stroke="red" stroke-width="0.3pt" d="M76.237 -17.427L70.3407 -21.1061" />

<path stroke="red" stroke-width="0.3pt" d="M70.3407 -21.1061L63.8679 -23.6371" />

<path stroke="red" stroke-width="0.3pt" d="M63.8679 -23.6371L57.0398 -24.9332" />

<path stroke="red" stroke-width="0.3pt" d="M57.0398 -24.9332L50.0899 -24.9497" />

<path stroke="red" stroke-width="0.3pt" d="M50.0899 -24.9497L43.2557 -23.6859" />

<path stroke="red" stroke-width="0.3pt" d="M43.2557 -23.6859L36.7713 -21.1849" />

<path stroke="red" stroke-width="0.3pt" d="M36.7713 -21.1849L30.8585 -17.5324" />

<path stroke="red" stroke-width="0.3pt" d="M30.8585 -17.5324L25.7196 -12.8533" />

<path stroke="red" stroke-width="0.3pt" d="M25.7196 -12.8533L21.53 -7.30801" />

<path stroke="red" stroke-width="0.3pt" d="M21.53 -7.30801L18.4329 -1.08628" />

<path stroke="red" stroke-width="0.3pt" d="M18.4329 -1.08628L16.5332 5.59906" />

<path stroke="red" stroke-width="0.3pt" d="M16.5332 5.59906L15.8949 12.5197" />

<path stroke="red" stroke-width="0.3pt" d="M15.8949 12.5197L16.539 19.4398" />

<path stroke="red" stroke-width="0.3pt" d="M16.539 19.4398L18.4431 26.1239" />

<path stroke="red" stroke-width="0.3pt" d="M18.4431 26.1239L21.5197 32.3" />

<path stroke="red" stroke-width="0.3pt" d="M21.5197 32.3L25.7063 37.8474" />

<path stroke="red" stroke-width="0.3pt" d="M25.7063 37.8474L30.7987 42.5033" />

<path stroke="red" stroke-width="0.3pt" d="M30.7987 42.5033L36.6549 46.1524" />

<path stroke="red" stroke-width="0.3pt" d="M36.6549 46.1524L43.1821 48.6814" />

<path stroke="red" stroke-width="0.3pt" d="M43.1821 48.6814L50.0136 49.9595" />

</g>

</g>

</svg>

