<?xml version="1.0" standalone="no"?>
<!DOCTYPE svg PUBLIC "-//W3C//DTD SVG 1.1//EN" "http://www.w3.org/Graphics/SVG/1.1/DTD/svg11.dtd">

<svg style="stroke-linejoin:round; stroke:black; stroke-width:0.5pt; text-anchor:middle; fill:none" xmlns="http://www.w3.org/2000/svg" font-family="Helvetica, Arial, FreeSans, Sans, sans, sans-serif" height="600px" width="600px" version="1.1" xmlns:xlink="http://www.w3.org/1999/xlink" viewBox="0 0 100 100">

<g>

<g>

<path stroke="black" stroke-width=".5pt" d="M50 50L75 50" />

<path stroke="black" stroke-width=".5pt" d="M50 50L50 25" />

<path stroke="black" stroke-width=".5pt" d="M50 50L50 50" />

<path stroke="red" stroke-width="0.3pt" d="M50 50L60.3 50" />

<path stroke="red" stroke-width="0.3pt" d="M60.3 50L70.1728 47.2448" />

<path stroke="red" stroke-width="0.3pt" d="M70.1728 47.2448L78.9368 41.9293" />

<path stroke="red" stroke-width="0.3pt" d="M78.9368 41.9293L85.9434 34.448" />

<path stroke="red" stroke-width="0.3pt" d="M85.9434 34.448L90.6973 25.3107" />

<path stroke="red" stroke-width="0.3pt" d="M90.6973 25.3107L92.8114 15.23" />

<path stroke="red" stroke-width="0.3pt" d="M92.8114 15.23L92.1278 4.95271" />

<path stroke="red" stroke-width="0.3pt" d="M92.1278 4.95271L88.6962 -4.75884" />

<path stroke="red" stroke-width="0.3pt" d="M88.6962 -4.75884L82.7709 -13.1838" />

<path stroke="red" stroke-width="0.3pt" d="M82.7709 -13.1838L74.7915 -19.6969" />

<path stroke="red" stroke-width="0.3pt" d="M74.7915 -19.6969L65.3505 -23.8147" />

<path stroke="red" stroke-width="0.3pt" d="M65.3505 -23.8147L55.1484 -25.2316" />

<path stroke="red" stroke-width="0.3pt" d="M55.1484 -25.2316L44.9425 -23.8424" />

<path stroke="red" stroke-width="0.3pt" d="M44.9425 -23.8424L35.4903 -19.7503" />

<path stroke="red" stroke-width="0.3pt" d="M35.4903 -19.7503L27.4933 -13.2588" />

<path stroke="red" stroke-width="0.3pt" d="M27.4933 -13.2588L21.5448 -4.85023" />

<path stroke="red" stroke-width="0.3pt" d="M21.5448 -4.85023L18.0851 4.85133" />

<path stroke="red" stroke-width="0.3pt" d="M18.0851 4.85133L17.3693 15.1264" />

<path stroke="red" stroke-width="0.3pt" d="M17.3693 15.1264L19.4394 25.1652" />

<path stroke="red" stroke-width="0.3pt" d="M19.4394 25.1652L24.1391 34.2743" />

<path stroke="red" stroke-width="0.3pt" d="M24.1391 34.2743L31.1211 41.7786" />

<path stroke="red" stroke-width="0.3pt" d="M31.1211 41.7786L39.9059 47.1559" />

<path stroke="red" stroke-width="0.3pt" d="M39.9059 47.1559L49.82 49.9489" />

</g>

</g>

</svg>

