
from blochlib.quantop import operator
from blochlib.blochlib import *

DENSITY_MATRIX = operator("1,0;0,0")
OUTPUT_NAME = "optimal_17_algebra.svg"
PULSE_SEQUENCE = [rotation((1.000000, 0.000000, 0.000000), 0.279),rotation((0.933188, 0.359387, 0.000000), 0.278),rotation((0.740585, 0.671962, 0.000000), 0.278),rotation((0.448087, 0.893990, 0.000000), 0.279),rotation((0.095120, 0.995466, 0.000000), 0.279),rotation((-0.270838, 0.962625, 0.000000), 0.279),rotation((-0.600346, 0.799740, 0.000000), 0.279),rotation((-0.848777, 0.528752, 0.000000), 0.279),rotation((-0.982495, 0.186288, 0.000000), 0.279),rotation((-0.983420, -0.181340, 0.000000), 0.279),rotation((-0.851469, -0.524405, 0.000000), 0.279),rotation((-0.604594, -0.796534, 0.000000), 0.279),rotation((-0.276257, -0.961084, 0.000000), 0.279),rotation((0.089301, -0.996005, 0.000000), 0.278),rotation((0.442752, -0.896644, 0.000000), 0.278),rotation((0.735417, -0.677614, 0.000000), 0.279),rotation((0.931605, -0.363471, 0.000000), 0.281),]
VIEW = (0,0,1)