
from blochlib.quantop import operator
from blochlib.blochlib import *

DENSITY_MATRIX = operator("1,0;0,0")
OUTPUT_NAME = "optimal_16_algebra.svg"
PULSE_SEQUENCE = [rotation((1.000000, 0.000000, 0.000000), 0.296),rotation((0.924493, 0.381199, 0.000000), 0.296),rotation((0.708601, 0.705610, 0.000000), 0.296),rotation((0.384949, 0.922938, 0.000000), 0.296),rotation((0.002611, 0.999997, 0.000000), 0.296),rotation((-0.380273, 0.924874, 0.000000), 0.296),rotation((-0.705321, 0.708888, 0.000000), 0.296),rotation((-0.922955, 0.384907, 0.000000), 0.297),rotation((-0.999997, 0.002294, 0.000000), 0.296),rotation((-0.924722, -0.380642, 0.000000), 0.296),rotation((-0.708665, -0.705545, 0.000000), 0.296),rotation((-0.384867, -0.922972, 0.000000), 0.296),rotation((-0.002703, -0.999996, 0.000000), 0.296),rotation((0.379717, -0.925103, 0.000000), 0.296),rotation((0.703693, -0.710504, 0.000000), 0.296),rotation((0.922967, -0.384880, 0.000000), 0.299),]
VIEW = (0,0,1)