
from blochlib.quantop import operator
from blochlib.blochlib import *

DENSITY_MATRIX = operator("1,0;0,0")
OUTPUT_NAME = "optimal_44_algebra.svg"
PULSE_SEQUENCE = [rotation((1.000000, 0.000000, 0.000000), 0.103),rotation((0.989880, 0.141909, 0.000000), 0.105),rotation((0.959691, 0.281059, 0.000000), 0.106),rotation((0.910008, 0.414590, 0.000000), 0.106),rotation((0.841820, 0.539758, 0.000000), 0.107),rotation((0.756499, 0.653995, 0.000000), 0.107),rotation((0.655775, 0.754956, 0.000000), 0.107),rotation((0.541695, 0.840575, 0.000000), 0.107),rotation((0.416579, 0.909099, 0.000000), 0.107),rotation((0.282976, 0.959127, 0.000000), 0.107),rotation((0.143607, 0.989635, 0.000000), 0.107),rotation((0.001310, 0.999999, 0.000000), 0.107),rotation((-0.141016, 0.990007, 0.000000), 0.107),rotation((-0.280474, 0.959862, 0.000000), 0.107),rotation((-0.414222, 0.910176, 0.000000), 0.107),rotation((-0.539539, 0.841961, 0.000000), 0.107),rotation((-0.653872, 0.756605, 0.000000), 0.107),rotation((-0.754894, 0.655847, 0.000000), 0.107),rotation((-0.840548, 0.541737, 0.000000), 0.107),rotation((-0.909090, 0.416599, 0.000000), 0.107),rotation((-0.959126, 0.282980, 0.000000), 0.107),rotation((-0.989636, 0.143599, 0.000000), 0.107),rotation((-0.999999, 0.001295, 0.000000), 0.107),rotation((-0.990005, -0.141035, 0.000000), 0.107),rotation((-0.959855, -0.280495, 0.000000), 0.107),rotation((-0.910165, -0.414245, 0.000000), 0.107),rotation((-0.841946, -0.539562, 0.000000), 0.107),rotation((-0.756586, -0.653894, 0.000000), 0.107),rotation((-0.655823, -0.754915, 0.000000), 0.107),rotation((-0.541708, -0.840567, 0.000000), 0.107),rotation((-0.416566, -0.909105, 0.000000), 0.107),rotation((-0.282946, -0.959136, 0.000000), 0.107),rotation((-0.143568, -0.989641, 0.000000), 0.107),rotation((-0.001272, -0.999999, 0.000000), 0.107),rotation((0.141043, -0.990003, 0.000000), 0.107),rotation((0.280477, -0.959861, 0.000000), 0.107),rotation((0.414189, -0.910191, 0.000000), 0.107),rotation((0.539455, -0.842015, 0.000000), 0.107),rotation((0.653723, -0.756734, 0.000000), 0.107),rotation((0.754672, -0.656102, 0.000000), 0.106),rotation((0.840252, -0.542196, 0.000000), 0.106),rotation((0.908739, -0.417365, 0.000000), 0.105),rotation((0.958767, -0.284192, 0.000000), 0.103),rotation((0.990577, -0.136959, 0.000000), 0.128),]
VIEW = (0,0,1)