
from blochlib.quantop import operator
from blochlib.blochlib import *

DENSITY_MATRIX = operator("1,0;0,0")
OUTPUT_NAME = "optimal_26_algebra.svg"
PULSE_SEQUENCE = [rotation((1.000000, 0.000000, 0.000000), 0.184),rotation((0.970892, 0.239517, 0.000000), 0.181),rotation((0.885311, 0.465000, 0.000000), 0.181),rotation((0.748514, 0.663119, 0.000000), 0.181),rotation((0.568405, 0.822749, 0.000000), 0.182),rotation((0.355245, 0.934773, 0.000000), 0.182),rotation((0.121307, 0.992615, 0.000000), 0.182),rotation((-0.119800, 0.992798, 0.000000), 0.182),rotation((-0.354005, 0.935244, 0.000000), 0.182),rotation((-0.567643, 0.823275, 0.000000), 0.182),rotation((-0.748266, 0.663399, 0.000000), 0.182),rotation((-0.885356, 0.464914, 0.000000), 0.182),rotation((-0.970927, 0.239374, 0.000000), 0.182),rotation((-1.000000, -0.000084, 0.000000), 0.182),rotation((-0.970891, -0.239523, 0.000000), 0.182),rotation((-0.885302, -0.465016, 0.000000), 0.182),rotation((-0.748223, -0.663448, 0.000000), 0.182),rotation((-0.567639, -0.823278, 0.000000), 0.182),rotation((-0.354093, -0.935210, 0.000000), 0.182),rotation((-0.120081, -0.992764, 0.000000), 0.182),rotation((0.120720, -0.992687, 0.000000), 0.182),rotation((0.354388, -0.935098, 0.000000), 0.181),rotation((0.567620, -0.823291, 0.000000), 0.181),rotation((0.748260, -0.663406, 0.000000), 0.181),rotation((0.885418, -0.464796, 0.000000), 0.184),rotation((0.970761, -0.240050, 0.000000), 0.180),]
VIEW = (0,0,1)