<?xml version="1.0" standalone="no"?>
<!DOCTYPE svg PUBLIC "-//W3C//DTD SVG 1.1//EN" "http://www.w3.org/Graphics/SVG/1.1/DTD/svg11.dtd">

<svg style="stroke-linejoin:round; stroke:black; stroke-width:0.5pt; text-anchor:middle; fill:none" xmlns="http://www.w3.org/2000/svg" font-family="Helvetica, Arial, FreeSans, Sans, sans, sans-serif" height="600px" width="600px" version="1.1" xmlns:xlink="http://www.w3.org/1999/xlink" viewBox="0 0 100 100">

<g>

<g>

<path stroke="black" stroke-width=".5pt" d="M50 50L75 50" />

<path stroke="black" stroke-width=".5pt" d="M50 50L50 25" />

<path stroke="black" stroke-width=".5pt" d="M50 50L50 50" />

<path stroke="red" stroke-width="0.3pt" d="M50 50L58.55 50" />

<path stroke="red" stroke-width="0.3pt" d="M58.55 50L66.7393 48.1305" />

<path stroke="red" stroke-width="0.3pt" d="M66.7393 48.1305L74.3065 44.4839" />

<path stroke="red" stroke-width="0.3pt" d="M74.3065 44.4839L80.8737 39.2463" />

<path stroke="red" stroke-width="0.3pt" d="M80.8737 39.2463L86.1132 32.6807" />

<path stroke="red" stroke-width="0.3pt" d="M86.1132 32.6807L89.7845 25.0699" />

<path stroke="red" stroke-width="0.3pt" d="M89.7845 25.0699L91.6712 16.8332" />

<path stroke="red" stroke-width="0.3pt" d="M91.6712 16.8332L91.6779 8.38321" />

<path stroke="red" stroke-width="0.3pt" d="M91.6779 8.38321L89.8036 0.143696" />

<path stroke="red" stroke-width="0.3pt" d="M89.8036 0.143696L86.1423 -7.4719" />

<path stroke="red" stroke-width="0.3pt" d="M86.1423 -7.4719L80.8776 -14.0814" />

<path stroke="red" stroke-width="0.3pt" d="M80.8776 -14.0814L74.2736 -19.353" />

<path stroke="red" stroke-width="0.3pt" d="M74.2736 -19.353L66.6617 -23.022" />

<path stroke="red" stroke-width="0.3pt" d="M66.6617 -23.022L58.424 -24.9042" />

<path stroke="red" stroke-width="0.3pt" d="M58.424 -24.9042L49.974 -24.9049" />

<path stroke="red" stroke-width="0.3pt" d="M49.974 -24.9049L41.736 -23.024" />

<path stroke="red" stroke-width="0.3pt" d="M41.736 -23.024L34.1236 -19.356" />

<path stroke="red" stroke-width="0.3pt" d="M34.1236 -19.356L27.519 -14.0853" />

<path stroke="red" stroke-width="0.3pt" d="M27.519 -14.0853L22.2535 -7.47634" />

<path stroke="red" stroke-width="0.3pt" d="M22.2535 -7.47634L18.5914 0.138836" />

<path stroke="red" stroke-width="0.3pt" d="M18.5914 0.138836L16.7155 8.37799" />

<path stroke="red" stroke-width="0.3pt" d="M16.7155 8.37799L16.7188 16.828" />

<path stroke="red" stroke-width="0.3pt" d="M16.7188 16.828L18.5999 25.066" />

<path stroke="red" stroke-width="0.3pt" d="M18.5999 25.066L22.2421 32.6353" />

<path stroke="red" stroke-width="0.3pt" d="M22.2421 32.6353L27.4757 39.2056" />

<path stroke="red" stroke-width="0.3pt" d="M27.4757 39.2056L34.0408 44.4457" />

<path stroke="red" stroke-width="0.3pt" d="M34.0408 44.4457L41.7424 48.159" />

<path stroke="red" stroke-width="0.3pt" d="M41.7424 48.159L49.8849 50.0087" />

</g>

</g>

</svg>

