<?xml version="1.0" standalone="no"?>
<!DOCTYPE svg PUBLIC "-//W3C//DTD SVG 1.1//EN" "http://www.w3.org/Graphics/SVG/1.1/DTD/svg11.dtd">

<svg style="stroke-linejoin:round; stroke:black; stroke-width:0.5pt; text-anchor:middle; fill:none" xmlns="http://www.w3.org/2000/svg" font-family="Helvetica, Arial, FreeSans, Sans, sans, sans-serif" height="600px" width="600px" version="1.1" xmlns:xlink="http://www.w3.org/1999/xlink" viewBox="0 0 100 100">

<g>

<g>

<path stroke="black" stroke-width=".5pt" d="M50 50L75 50" />

<path stroke="black" stroke-width=".5pt" d="M50 50L50 25" />

<path stroke="black" stroke-width=".5pt" d="M50 50L50 50" />

<path stroke="red" stroke-width="0.3pt" d="M50 50L56 50" />

<path stroke="red" stroke-width="0.3pt" d="M56 50L62.0174 48.9998" />

<path stroke="red" stroke-width="0.3pt" d="M62.0174 48.9998L67.8363 47.0091" />

<path stroke="red" stroke-width="0.3pt" d="M67.8363 47.0091L73.249 44.0892" />

<path stroke="red" stroke-width="0.3pt" d="M73.249 44.0892L78.1473 40.2883" />

<path stroke="red" stroke-width="0.3pt" d="M78.1473 40.2883L82.3537 35.7335" />

<path stroke="red" stroke-width="0.3pt" d="M82.3537 35.7335L85.7532 30.5486" />

<path stroke="red" stroke-width="0.3pt" d="M85.7532 30.5486L88.2532 24.875" />

<path stroke="red" stroke-width="0.3pt" d="M88.2532 24.875L89.7854 18.8673" />

<path stroke="red" stroke-width="0.3pt" d="M89.7854 18.8673L90.3078 12.6894" />

<path stroke="red" stroke-width="0.3pt" d="M90.3078 12.6894L89.8062 6.50968" />

<path stroke="red" stroke-width="0.3pt" d="M89.8062 6.50968L88.2943 0.496846" />

<path stroke="red" stroke-width="0.3pt" d="M88.2943 0.496846L85.8134 -5.18512" />

<path stroke="red" stroke-width="0.3pt" d="M85.8134 -5.18512L82.431 -10.3812" />

<path stroke="red" stroke-width="0.3pt" d="M82.431 -10.3812L78.2394 -14.9497" />

<path stroke="red" stroke-width="0.3pt" d="M78.2394 -14.9497L73.3531 -18.7659" />

<path stroke="red" stroke-width="0.3pt" d="M73.3531 -18.7659L67.9053 -21.7258" />

<path stroke="red" stroke-width="0.3pt" d="M67.9053 -21.7258L62.0445 -23.7487" />

<path stroke="red" stroke-width="0.3pt" d="M62.0445 -23.7487L55.9308 -24.7793" />

<path stroke="red" stroke-width="0.3pt" d="M55.9308 -24.7793L49.7308 -24.7895" />

<path stroke="red" stroke-width="0.3pt" d="M49.7308 -24.7895L43.6137 -23.779" />

<path stroke="red" stroke-width="0.3pt" d="M43.6137 -23.779L37.7463 -21.7755" />

<path stroke="red" stroke-width="0.3pt" d="M37.7463 -21.7755L32.2887 -18.8336" />

<path stroke="red" stroke-width="0.3pt" d="M32.2887 -18.8336L27.3898 -15.0335" />

<path stroke="red" stroke-width="0.3pt" d="M27.3898 -15.0335L23.1833 -10.4789" />

<path stroke="red" stroke-width="0.3pt" d="M23.1833 -10.4789L19.7837 -5.29398" />

<path stroke="red" stroke-width="0.3pt" d="M19.7837 -5.29398L17.284 0.379754" />

<path stroke="red" stroke-width="0.3pt" d="M17.284 0.379754L15.7522 6.38755" />

<path stroke="red" stroke-width="0.3pt" d="M15.7522 6.38755L15.2301 12.5655" />

<path stroke="red" stroke-width="0.3pt" d="M15.2301 12.5655L15.7318 18.7452" />

<path stroke="red" stroke-width="0.3pt" d="M15.7318 18.7452L17.2437 24.758" />

<path stroke="red" stroke-width="0.3pt" d="M17.2437 24.758L19.7243 30.4402" />

<path stroke="red" stroke-width="0.3pt" d="M19.7243 30.4402L23.1058 35.6369" />

<path stroke="red" stroke-width="0.3pt" d="M23.1058 35.6369L27.2619 40.1699" />

<path stroke="red" stroke-width="0.3pt" d="M27.2619 40.1699L32.1065 43.9584" />

<path stroke="red" stroke-width="0.3pt" d="M32.1065 43.9584L37.4635 46.8761" />

<path stroke="red" stroke-width="0.3pt" d="M37.4635 46.8761L43.1319 48.8431" />

<path stroke="red" stroke-width="0.3pt" d="M43.1319 48.8431L50.1764 50.0668" />

</g>

</g>

</svg>

